[gd_scene load_steps=3 format=2]

[ext_resource path="res://art/city/roguelikeCity_magenta.png" type="Texture" id=1]

[sub_resource type="RectangleShape2D" id=1]

custom_solver_bias = 0.0
extents = Vector2( 10, 10 )

[node name="road block 7" type="Node2D"]

editor/display_folded = true
position = Vector2( 435, -18 )
__meta__ = {
"_edit_group_": true
}

[node name="Sprite" type="Sprite" parent="."]

texture = ExtResource( 1 )
region_enabled = true
region_rect = Rect2( 1768, 476, 64, 64 )

[node name="StaticBody2D" type="StaticBody2D" parent="."]

input_pickable = false
collision_layer = 1
collision_mask = 1
constant_linear_velocity = Vector2( 0, 0 )
constant_angular_velocity = 0.0
friction = 1.0
bounce = 0.0

[node name="CollisionShape2D" type="CollisionShape2D" parent="StaticBody2D"]

position = Vector2( 0.0846138, 8.45308 )
scale = Vector2( 3.21114, 1.1434 )
shape = SubResource( 1 )


