[gd_scene load_steps=3 format=2]

[ext_resource path="res://art/city/roguelikeCity_magenta.png" type="Texture" id=1]

[sub_resource type="RectangleShape2D" id=6]

custom_solver_bias = 0.0
extents = Vector2( 7.98999, 10 )

[node name="tree 6" type="Node2D"]

editor/display_folded = true
position = Vector2( 1529, -30 )
__meta__ = {
"_edit_group_": true
}

[node name="Sprite" type="Sprite" parent="."]

texture = ExtResource( 1 )
region_enabled = true
region_rect = Rect2( 2448, 748, 64, 64 )

[node name="Sprite3" type="Sprite" parent="."]

position = Vector2( 0, -64 )
texture = ExtResource( 1 )
region_enabled = true
region_rect = Rect2( 2448, 680, 64, 64 )

[node name="StaticBody2D" type="StaticBody2D" parent="."]

input_pickable = false
collision_layer = 1
collision_mask = 1
constant_linear_velocity = Vector2( 0, 0 )
constant_angular_velocity = 0.0
friction = 1.0
bounce = 0.0

[node name="CollisionShape2D" type="CollisionShape2D" parent="StaticBody2D"]

position = Vector2( 0, 27.4517 )
scale = Vector2( 1, 0.457808 )
shape = SubResource( 6 )


