[gd_scene load_steps=2 format=2]

[ext_resource path="res://scenes/globals/music.gd" type="Script" id=1]



[node name="music" type="AudioStreamPlayer"]

stream = null
volume_db = 0.0
autoplay = true
mix_target = 0
bus = "Master"
script = ExtResource( 1 )


