[gd_scene load_steps=3 format=2]

[sub_resource type="SegmentShape2D" id=1]

custom_solver_bias = 0.0
a = Vector2( 32, -24 )
b = Vector2( 32, 40 )

[sub_resource type="SegmentShape2D" id=2]

custom_solver_bias = 0.0
a = Vector2( -32, 32 )
b = Vector2( 32, 32 )

[node name="collision southeast" type="StaticBody2D"]

position = Vector2( 32, 32 )
input_pickable = false
collision_layer = 1
collision_mask = 1
constant_linear_velocity = Vector2( 0, 0 )
constant_angular_velocity = 0.0
friction = 1.0
bounce = 0.0

[node name="east" type="CollisionShape2D" parent="."]

position = Vector2( 0, -8 )
shape = SubResource( 1 )

[node name="south" type="CollisionShape2D" parent="."]

shape = SubResource( 2 )


