[gd_scene load_steps=2 format=2]

[sub_resource type="SegmentShape2D" id=3]

custom_solver_bias = 0.0
a = Vector2( 99.9829, 1.99988 )
b = Vector2( -99.9829, 2.00012 )

[node name="collision_west" type="StaticBody2D"]

position = Vector2( 32, 32 )
input_pickable = false
collision_layer = 1
collision_mask = 1
constant_linear_velocity = Vector2( 0, 0 )
constant_angular_velocity = 0.0
friction = 1.0
bounce = 0.0

[node name="CollisionShape2D" type="CollisionShape2D" parent="."]

position = Vector2( -30, 0 )
rotation = 1.5708
scale = Vector2( 0.320055, 1 )
shape = SubResource( 3 )


